{
  "images" : [
    {
      "idiom" : "universal",
      "filename" : "Screen Shot 2559-04-03 at 3.08.17 AM.png",
      "scale" : "1x"
    },
    {
      "idiom" : "universal",
      "scale" : "2x"
    },
    {
      "idiom" : "universal",
      "scale" : "3x"
    }
  ],
  "info" : {
    "version" : 1,
    "author" : "xcode"
  }
}